<?xml version="1.0" encoding="UTF-8"?>
<!-- This comment is only here because changes to resources are not picked up
     without changes to the corresponding grd file.  -->
<grit latest_public_release="0" current_release="1" output_all_resource_defines="false">
  <outputs>
    <output filename="grit/component_extension_resources.h" type="rc_header">
      <emit emit_type='prepend'></emit>
    </output>
    <output filename="grit/component_extension_resources_map.cc" type="resource_file_map_source" />
    <output filename="grit/component_extension_resources_map.h" type="resource_map_header" />
    <output filename="component_extension_resources.pak" type="data_package" />
  </outputs>
  <release seq="1">
    <structures>
      <structure name="IDR_BOOKMARK_MANAGER_MAIN" file="bookmark_manager/main.html" flattenhtml="true" allowexternalscript="true" type="chrome_html" />
      <if expr="chromeos">
        <structure name="IDR_WALLPAPER_MANAGER_MAIN" file="chromeos/wallpaper_manager/main.html" flattenhtml="true" allowexternalscript="true" type="chrome_html" />
        <if expr="not _google_chrome">
          <structure name="IDR_FIRST_RUN_DIALOG_MAIN" file="chromeos/first_run/app/main.html" flattenhtml="true" allowexternalscript="true" type="chrome_html" variables="GREETING_IMAGE=disabled" expand_variables="true"/>
        </if>
        <if expr="_google_chrome">
          <structure name="IDR_FIRST_RUN_DIALOG_MAIN" file="chromeos/first_run/app/main.html" flattenhtml="true" allowexternalscript="true" type="chrome_html" variables="GREETING_IMAGE=enabled" expand_variables="true"/>
        </if>
      </if>
    </structures>
    <includes>
      <include name="IDR_NETWORK_SPEECH_SYNTHESIS_JS" file="network_speech_synthesis/tts_extension.js" type="BINDATA" />

      <if expr="chromeos">
        <include name="IDR_BRAILLE_IME_JS" file="chromeos/braille_ime/braille_ime.js" type="BINDATA" />
        <include name="IDR_BRAILLE_IME_MAIN_JS" file="chromeos/braille_ime/main.js" type="BINDATA" />
      </if>

      <include name="IDR_BOOKMARK_MANAGER_BOOKMARK_MANAGER_SEARCH" file="bookmark_manager/images/bookmark_manager_search.png" type="BINDATA" />
      <include name="IDR_BOOKMARK_MANAGER_BOOKMARK_MANAGER_SEARCH_RTL" file="bookmark_manager/images/bookmark_manager_search_rtl.png" type="BINDATA" />
      <include name="IDR_BOOKMARK_MANAGER_BOOKMARK_MAIN_JS" file="bookmark_manager/js/main.js" type="BINDATA" />
      <include name="IDR_BOOKMARK_MANAGER_BOOKMARK_BMM_LIST_JS" file="bookmark_manager/js/bmm/bookmark_list.js" type="BINDATA" />
      <include name="IDR_BOOKMARK_MANAGER_BOOKMARK_BMM_TREE_JS" file="bookmark_manager/js/bmm/bookmark_tree.js" type="BINDATA" />
      <include name="IDR_BOOKMARK_MANAGER_BOOKMARK_DND_JS" file="bookmark_manager/js/dnd.js" type="BINDATA" />
      <include name="IDR_BOOKMARK_MANAGER_BOOKMARK_BMM_JS" file="bookmark_manager/js/bmm.js" type="BINDATA" />
      <!-- Material Design Bookmarks -->
      <include name="IDR_COMPONENT_MD_BOOKMARKS_BOOKMARKS_HTML" file="md_bookmarks/bookmarks.html" type="BINDATA" />
      <!-- Gaia auth extension -->
      <include name="IDR_GAIA_AUTH_SUCCESS" file="gaia_auth/success.html" allowexternalscript="true" type="BINDATA" />
      <!-- Hangout Services extension, included in Google Chrome builds only. -->
      <if expr="_google_chrome or enable_hangout_services_extension">
        <include name="IDR_HANGOUT_SERVICES_BACKGROUND_HTML" file="hangout_services/background.html" type="BINDATA" />
        <include name="IDR_HANGOUT_SERVICES_THUNK_JS" file="hangout_services/thunk.js" type="BINDATA" />
      </if>
      <if expr="not is_android">
        <include name="IDR_FEEDBACK_DEFAULT_HTML" file="feedback/html/default.html" flattenhtml="true" allowexternalscript="true" type="BINDATA" />
        <include name="IDR_FEEDBACK_SYSINFO_HTML" file="feedback/html/sys_info.html" flattenhtml="true" allowexternalscript="true" type="BINDATA" />
        <include name="IDR_FEEDBACK_FEEDBACK_DATA_JS" file="feedback/js/data.js" flattenhtml="true" type="BINDATA" />
        <include name="IDR_FEEDBACK_EVENT_HANDLER_JS" file="feedback/js/event_handler.js" flattenhtml="true" type="BINDATA" />
        <include name="IDR_FEEDBACK_FEEDBACK_JS" file="feedback/js/feedback.js" flattenhtml="true" type="BINDATA" />
        <include name="IDR_FEEDBACK_SYSINFO_JS" file="feedback/js/sys_info.js" flattenhtml="true" type="BINDATA" />
        <include name="IDR_FEEDBACK_TAKE_SCREENSHOT_JS" file="feedback/js/take_screenshot.js" flattenhtml="true" type="BINDATA" />
        <include name="IDR_FEEDBACK_TOPBAR_HANDLER_JS" file="feedback/js/topbar_handlers.js" flattenhtml="true" type="BINDATA" />
        <include name="IDR_FEEDBACK_FEEDBACK_CSS" file="feedback/css/feedback.css" type="BINDATA" />
        <include name="IDR_FEEDBACK_SYSINFO_CSS" file="feedback/css/sys_info.css" type="BINDATA" />
        <include name="IDR_FEEDBACK_ICON_32" file="feedback/images/icon32.png" type="BINDATA" />
        <include name="IDR_FEEDBACK_ICON_64" file="feedback/images/icon64.png" type="BINDATA" />
      </if>
      <include name="IDR_IDENTITY_API_SCOPE_APPROVAL_BACKGROUND_JS" file="identity_scope_approval_dialog/background.js" type="BINDATA" />
      <include name="IDR_IDENTITY_API_SCOPE_APPROVAL_DIALOG_CSS" file="identity_scope_approval_dialog/scope_approval_dialog.css" type="BINDATA" />
      <include name="IDR_IDENTITY_API_SCOPE_APPROVAL_DIALOG" file="identity_scope_approval_dialog/scope_approval_dialog.html" type="BINDATA" />
      <include name="IDR_IDENTITY_API_SCOPE_APPROVAL_DIALOG_JS" file="identity_scope_approval_dialog/scope_approval_dialog.js" type="BINDATA" />
      <if expr="chromeos">
        <include name="IDR_WALLPAPER_MANAGER_CONSTANTS_JS" file="chromeos/wallpaper_manager/js/constants.js" flattenhtml="true" type="BINDATA" />
        <include name="IDR_WALLPAPER_MANAGER_EVENT_JS" file="chromeos/wallpaper_manager/js/event_page.js" flattenhtml="true" type="BINDATA" />
        <include name="IDR_WALLPAPER_MANAGER_ICON_16" file="chromeos/wallpaper_manager/images/icon16.png" type="BINDATA" />
        <include name="IDR_WALLPAPER_MANAGER_ICON_32" file="chromeos/wallpaper_manager/images/icon32.png" type="BINDATA" />
        <include name="IDR_WALLPAPER_MANAGER_ICON_48" file="chromeos/wallpaper_manager/images/icon48.png" type="BINDATA" />
        <include name="IDR_WALLPAPER_MANAGER_ICON_64" file="chromeos/wallpaper_manager/images/icon64.png" type="BINDATA" />
        <include name="IDR_WALLPAPER_MANAGER_ICON_96" file="chromeos/wallpaper_manager/images/icon96.png" type="BINDATA" />
        <include name="IDR_WALLPAPER_MANAGER_ICON_128" file="chromeos/wallpaper_manager/images/icon128.png" type="BINDATA" />
        <include name="IDR_WALLPAPER_MANAGER_ICON_256" file="chromeos/wallpaper_manager/images/icon256.png" type="BINDATA" />
        <include name="IDR_WALLPAPER_MANAGER_MAIN_JS" file="chromeos/wallpaper_manager/js/main_scripts.js" flattenhtml="true" type="BINDATA" />
        <include name="IDR_WALLPAPER_MANAGER_UTIL_JS" file="chromeos/wallpaper_manager/js/util.js" flattenhtml="true" type="BINDATA" />
        <include name="IDR_FIRST_RUN_DIALOG_BACKGROUND_JS" file="chromeos/first_run/app/background.js" flattenhtml="true" type="BINDATA" />
        <include name="IDR_FIRST_RUN_DIALOG_MAIN_JS" file="chromeos/first_run/app/main.js" flattenhtml="true" type="BINDATA" />
        <include name="IDR_FIRST_RUN_DIALOG_ICON_16" file="chromeos/first_run/app/icon/16.png" type="BINDATA" />
        <include name="IDR_FIRST_RUN_DIALOG_ICON_32" file="chromeos/first_run/app/icon/32.png" type="BINDATA" />
        <include name="IDR_FIRST_RUN_DIALOG_ICON_48" file="chromeos/first_run/app/icon/48.png" type="BINDATA" />
        <include name="IDR_FIRST_RUN_DIALOG_ICON_64" file="chromeos/first_run/app/icon/64.png" type="BINDATA" />
        <include name="IDR_FIRST_RUN_DIALOG_ICON_96" file="chromeos/first_run/app/icon/96.png" type="BINDATA" />
        <include name="IDR_FIRST_RUN_DIALOG_ICON_128" file="chromeos/first_run/app/icon/128.png" type="BINDATA" />
        <include name="IDR_FIRST_RUN_DIALOG_ICON_256" file="chromeos/first_run/app/icon/256.png" type="BINDATA" />
        <include name="IDR_ARC_SUPPORT_BACKGROUND_JS" file="chromeos/arc_support/background.js" flattenhtml="true" type="BINDATA" />
        <include name="IDR_ARC_SUPPORT_MAIN_CSS" file="chromeos/arc_support/main.css" type="BINDATA" />
        <include name="IDR_ARC_SUPPORT_PLAYSTORE_CSS" file="chromeos/arc_support/playstore.css" type="BINDATA" />
        <include name="IDR_ARC_SUPPORT_PLAYSTORE_JS" file="chromeos/arc_support/playstore.js" type="BINDATA" />
        <include name="IDR_ARC_SUPPORT_PLAYSTORE_LOGO" file="chromeos/arc_support/icon/playstore.svg" type="BINDATA" />
        <include name="IDR_ARC_SUPPORT_PROGRESSBAR_CSS" file="chromeos/arc_support/progressbar.css" type="BINDATA" />
        <include name="IDR_ARC_SUPPORT_PROGRESSBAR_JS" file="chromeos/arc_support/progressbar.js" type="BINDATA" />
        <include name="IDR_ARC_SUPPORT_FOCUS_MANAGER_JS" file="chromeos/arc_support/arc_optin_focus_manager.js" type="BINDATA" />
        <include name="IDR_ARC_SUPPORT_MAIN" file="chromeos/arc_support/main.html" allowexternalscript="true" type="BINDATA" />
        <include name="IDR_ARC_SUPPORT_ICON_48" file="chromeos/arc_support/icon/48.png" type="BINDATA" />
        <include name="IDR_ARC_SUPPORT_ICON_96" file="chromeos/arc_support/icon/96.png" type="BINDATA" />
        <include name="IDR_ARC_SUPPORT_ICON_ERROER_IMAGE" file="chromeos/arc_support/images/error_image.png" type="BINDATA" />
        <include name="IDR_ARC_SUPPORT_ICON_HEADER" file="chromeos/arc_support/images/header.png" type="BINDATA" />
      </if>
      <if expr="enable_plugins">
        <!-- Note that resources included here also must be included in
             print_preview_ui.cc such these resources will be exposed to
             PDF in print preview. -->
        <include name="IDR_PDF_INDEX_HTML" file="pdf/index.html" allowexternalscript="true" type="BINDATA" />
        <include name="IDR_PDF_INDEX_CSS" file="pdf/index.css" allowexternalscript="true" type="BINDATA" />
        <include name="IDR_PDF_MAIN_JS" file="pdf/main.js" type="BINDATA" />
        <include name="IDR_PDF_PDF_JS" file="pdf/pdf.js" type="BINDATA" />
        <include name="IDR_PDF_UI_MANAGER_JS" file="pdf/toolbar_manager.js" type="BINDATA" />
        <include name="IDR_PDF_PDF_FITTING_TYPE_JS" file="pdf/pdf_fitting_type.js" type="BINDATA" />
        <include name="IDR_PDF_VIEWPORT_JS" file="pdf/viewport.js" type="BINDATA" />
        <include name="IDR_PDF_OPEN_PDF_PARAMS_PARSER_JS" file="pdf/open_pdf_params_parser.js" type="BINDATA" />
        <include name="IDR_PDF_NAVIGATOR_JS" file="pdf/navigator.js" type="BINDATA" />
        <include name="IDR_PDF_VIEWPORT_SCROLLER_JS" file="pdf/viewport_scroller.js" type="BINDATA" />
        <include name="IDR_PDF_PDF_SCRIPTING_API_JS" file="pdf/pdf_scripting_api.js" type="BINDATA" />
        <include name="IDR_PDF_ZOOM_MANAGER_JS" file="pdf/zoom_manager.js" type="BINDATA" />
        <include name="IDR_PDF_GESTURE_DETECTOR_JS" file="pdf/gesture_detector.js" type="BINDATA" />
        <include name="IDR_PDF_BROWSER_API_JS" file="pdf/browser_api.js" type="BINDATA" />
        <include name="IDR_PDF_METRICS_JS" file="pdf/metrics.js" type="BINDATA" />
        <include name="IDR_PDF_COORDS_TRANSFORMER_JS" file="pdf/coords_transformer.js" type="BINDATA" />

        <include name="IDR_PDF_SHARED_VARS_HTML" file="pdf/elements/shared-vars.html" type="BINDATA" />
        <include name="IDR_PDF_ICONS_HTML" file="pdf/elements/icons.html" type="BINDATA" />
        <include name="IDR_PDF_VIEWER_BOOKMARK_HTML" file="pdf/elements/viewer-bookmark/viewer-bookmark.html" type="BINDATA" />
        <include name="IDR_PDF_VIEWER_BOOKMARK_JS" file="pdf/elements/viewer-bookmark/viewer-bookmark.js" type="BINDATA" />
        <include name="IDR_PDF_VIEWER_BOOKMARKS_CONTENT_HTML" file="pdf/elements/viewer-bookmarks-content/viewer-bookmarks-content.html" type="BINDATA" />
        <include name="IDR_PDF_VIEWER_BOOKMARKS_CONTENT_JS" file="pdf/elements/viewer-bookmarks-content/viewer-bookmarks-content.js" type="BINDATA" />
        <include name="IDR_PDF_VIEWER_ERROR_SCREEN_HTML" file="pdf/elements/viewer-error-screen/viewer-error-screen.html" type="BINDATA" />
        <include name="IDR_PDF_VIEWER_ERROR_SCREEN_JS" file="pdf/elements/viewer-error-screen/viewer-error-screen.js" type="BINDATA" />
        <include name="IDR_PDF_VIEWER_PAGE_INDICATOR_HTML" file="pdf/elements/viewer-page-indicator/viewer-page-indicator.html" type="BINDATA" />
        <include name="IDR_PDF_VIEWER_PAGE_INDICATOR_JS" file="pdf/elements/viewer-page-indicator/viewer-page-indicator.js" type="BINDATA" flattenhtml="true" />
        <include name="IDR_PDF_VIEWER_PAGE_SELECTOR_HTML" file="pdf/elements/viewer-page-selector/viewer-page-selector.html" type="BINDATA" />
        <include name="IDR_PDF_VIEWER_PAGE_SELECTOR_JS" file="pdf/elements/viewer-page-selector/viewer-page-selector.js" type="BINDATA" />
        <include name="IDR_PDF_VIEWER_PASSWORD_SCREEN_HTML" file="pdf/elements/viewer-password-screen/viewer-password-screen.html" type="BINDATA" />
        <include name="IDR_PDF_VIEWER_PASSWORD_SCREEN_JS" file="pdf/elements/viewer-password-screen/viewer-password-screen.js" type="BINDATA" />
        <include name="IDR_PDF_VIEWER_PDF_TOOLBAR_HTML" file="pdf/elements/viewer-pdf-toolbar/viewer-pdf-toolbar.html" type="BINDATA" />
        <include name="IDR_PDF_VIEWER_PDF_TOOLBAR_JS" file="pdf/elements/viewer-pdf-toolbar/viewer-pdf-toolbar.js" type="BINDATA" />
        <include name="IDR_PDF_VIEWER_TOOLBAR_DROPDOWN_HTML" file="pdf/elements/viewer-toolbar-dropdown/viewer-toolbar-dropdown.html" type="BINDATA" />
        <include name="IDR_PDF_VIEWER_TOOLBAR_DROPDOWN_JS" file="pdf/elements/viewer-toolbar-dropdown/viewer-toolbar-dropdown.js" type="BINDATA" />
        <include name="IDR_PDF_VIEWER_ZOOM_BUTTON_HTML" file="pdf/elements/viewer-zoom-toolbar/viewer-zoom-button.html" type="BINDATA" />
        <include name="IDR_PDF_VIEWER_ZOOM_BUTTON_JS" file="pdf/elements/viewer-zoom-toolbar/viewer-zoom-button.js" type="BINDATA" />
        <include name="IDR_PDF_VIEWER_ZOOM_SELECTOR_HTML" file="pdf/elements/viewer-zoom-toolbar/viewer-zoom-toolbar.html" type="BINDATA" />
        <include name="IDR_PDF_VIEWER_ZOOM_SELECTOR_JS" file="pdf/elements/viewer-zoom-toolbar/viewer-zoom-toolbar.js" type="BINDATA" />
      </if>
      <include name="IDR_CRYPTOTOKEN_UTIL_JS" file="cryptotoken/util.js" type="BINDATA" />
      <include name="IDR_CRYPTOTOKEN_B64_JS" file="cryptotoken/b64.js" type="BINDATA" />
      <include name="IDR_CRYPTOTOKEN_CLOSEABLE_JS" file="cryptotoken/closeable.js" type="BINDATA" />
      <include name="IDR_CRYPTOTOKEN_COUNTDOWN_JS" file="cryptotoken/countdown.js" type="BINDATA" />
      <include name="IDR_CRYPTOTOKEN_COUNTDOWNTIMER_JS" file="cryptotoken/countdowntimer.js" type="BINDATA" />
      <include name="IDR_CRYPTOTOKEN_SHA256_JS" file="cryptotoken/sha256.js" type="BINDATA" />
      <include name="IDR_CRYPTOTOKEN_TIMER_JS" file="cryptotoken/timer.js" type="BINDATA" />
      <include name="IDR_CRYPTOTOKEN_HIDGNUBBYDEVICE_JS" file="cryptotoken/hidgnubbydevice.js" type="BINDATA" />
      <include name="IDR_CRYPTOTOKEN_USBGNUBBYDEVICE_JS" file="cryptotoken/usbgnubbydevice.js" type="BINDATA" />
      <include name="IDR_CRYPTOTOKEN_GNUBBIES_JS" file="cryptotoken/gnubbies.js" type="BINDATA" />
      <include name="IDR_CRYPTOTOKEN_GNUBBY_JS" file="cryptotoken/gnubby.js" type="BINDATA" />
      <include name="IDR_CRYPTOTOKEN_GNUBBY_U2F_JS" file="cryptotoken/gnubby-u2f.js" type="BINDATA" />
      <include name="IDR_CRYPTOTOKEN_GNUBBYFACTORY_JS" file="cryptotoken/gnubbyfactory.js" type="BINDATA" />
      <include name="IDR_CRYPTOTOKEN_USBGNUBBYFACTORY_JS" file="cryptotoken/usbgnubbyfactory.js" type="BINDATA" />
      <include name="IDR_CRYPTOTOKEN_DEVICESTATUSCODES_JS" file="cryptotoken/devicestatuscodes.js" type="BINDATA" />
      <include name="IDR_CRYPTOTOKEN_ASN1_JS" file="cryptotoken/asn1.js" type="BINDATA" />
      <include name="IDR_CRYPTOTOKEN_ENROLLER_JS" file="cryptotoken/enroller.js" type="BINDATA" />
      <include name="IDR_CRYPTOTOKEN_USBENROLLHANDLER_JS" file="cryptotoken/usbenrollhandler.js" type="BINDATA" />
      <include name="IDR_CRYPTOTOKEN_REQUESTQUEUE_JS" file="cryptotoken/requestqueue.js" type="BINDATA" />
      <include name="IDR_CRYPTOTOKEN_SIGNER_JS" file="cryptotoken/signer.js" type="BINDATA" />
      <include name="IDR_CRYPTOTOKEN_SINGLESIGNER_JS" file="cryptotoken/singlesigner.js" type="BINDATA" />
      <include name="IDR_CRYPTOTOKEN_MULTIPLESIGNER_JS" file="cryptotoken/multiplesigner.js" type="BINDATA" />
      <include name="IDR_CRYPTOTOKEN_USBSIGNHANDLER_JS" file="cryptotoken/usbsignhandler.js" type="BINDATA" />
      <include name="IDR_CRYPTOTOKEN_WEBREQUEST_JS" file="cryptotoken/webrequest.js" type="BINDATA" />
      <include name="IDR_CRYPTOTOKEN_APPID_JS" file="cryptotoken/appid.js" type="BINDATA" />
      <include name="IDR_CRYPTOTOKEN_USBHELPER_JS" file="cryptotoken/usbhelper.js" type="BINDATA" />
      <include name="IDR_CRYPTOTOKEN_TEXTFETCHER_JS" file="cryptotoken/textfetcher.js" type="BINDATA" />
      <include name="IDR_CRYPTOTOKEN_REQUESTHELPER_JS" file="cryptotoken/requesthelper.js" type="BINDATA" />
      <include name="IDR_CRYPTOTOKEN_MESSAGETYPES_JS" file="cryptotoken/messagetypes.js" type="BINDATA" />
      <include name="IDR_CRYPTOTOKEN_INHERITS_JS" file="cryptotoken/inherits.js" type="BINDATA" />
      <include name="IDR_CRYPTOTOKEN_GNUBBYDEVICE_JS" file="cryptotoken/gnubbydevice.js" type="BINDATA" />
      <include name="IDR_CRYPTOTOKEN_GENERICHELPER_JS" file="cryptotoken/generichelper.js" type="BINDATA" />
      <include name="IDR_CRYPTOTOKEN_FACTORYREGISTRY_JS" file="cryptotoken/factoryregistry.js" type="BINDATA" />
      <include name="IDR_CRYPTOTOKEN_ERRORCODES_JS" file="cryptotoken/errorcodes.js" type="BINDATA" />
      <include name="IDR_CRYPTOTOKEN_DEVICEFACTORYREGISTRY_JS" file="cryptotoken/devicefactoryregistry.js" type="BINDATA" />
      <include name="IDR_CRYPTOTOKEN_ORIGINCHECK_JS" file="cryptotoken/origincheck.js" type="BINDATA" />
      <include name="IDR_CRYPTOTOKEN_INDIVIDUALATTEST_JS" file="cryptotoken/individualattest.js" type="BINDATA" />
      <include name="IDR_CRYPTOTOKEN_GOOGLECORPINDIVIDUALATTEST_JS" file="cryptotoken/googlecorpindividualattest.js" type="BINDATA" />
      <include name="IDR_CRYPTOTOKEN_APPROVEDORIGINS_JS" file="cryptotoken/approvedorigins.js" type="BINDATA" />
      <include name="IDR_CRYPTOTOKEN_WEBREQUESTSENDER_JS" file="cryptotoken/webrequestsender.js" type="BINDATA" />
      <include name="IDR_CRYPTOTOKEN_WINDOW_TIMER_JS" file="cryptotoken/window-timer.js" type="BINDATA" />
      <include name="IDR_CRYPTOTOKEN_WATCHDOG_JS" file="cryptotoken/watchdog.js" type="BINDATA" />
      <include name="IDR_CRYPTOTOKEN_LOGGING_JS" file="cryptotoken/logging.js" type="BINDATA" />
      <include name="IDR_CRYPTOTOKEN_CRYPTOTOKENAPPROVEDORIGIN_JS" file="cryptotoken/cryptotokenapprovedorigins.js" type="BINDATA" />
      <include name="IDR_CRYPTOTOKEN_CRYPTOTOKENORIGINCHECK_JS" file="cryptotoken/cryptotokenorigincheck.js" type="BINDATA" />
      <include name="IDR_CRYPTOTOKEN_CRYPTOTOKENBACKGROUND_JS" file="cryptotoken/cryptotokenbackground.js" type="BINDATA" />
    </includes>
  </release>
</grit>
